radix=10;
coefdata=
0.000055805498765,
0.000010442626166,
0.000011372175459,
0.000012369394432,
0.000013368474230,
0.000014431619249,
0.000015489922183,
0.000016604900195,
0.000017706678255,
0.000018861964547,
0.000020003677692,
0.000021205342778,
0.000022392406702,
0.000023629886846,
0.000024818406079,
0.000026031574288,
0.000027190914345,
0.000028455100829,
0.000029610935215,
0.000030762451319,
0.000031915206572,
0.000033014451337,
0.000034082633682,
0.000035112830600,
0.000036087716341,
0.000037019011334,
0.000037872824567,
0.000038666841203,
0.000039364621645,
0.000039994182887,
0.000040516999297,
0.000040954816770,
0.000041256481830,
0.000041451314524,
0.000041509329596,
0.000041451551186,
0.000041207775321,
0.000040854120082,
0.000040300249354,
0.000039599899673,
0.000038692851277,
0.000037615887645,
0.000036318131000,
0.000034833144574,
0.000033107448416,
0.000031172237460,
0.000028977472600,
0.000026558776699,
0.000023866582048,
0.000020929860622,
0.000017698697970,
0.000014210972529,
0.000010419715292,
0.000006344880063,
0.000001955383070,
-0.000002720255149,
-0.000007734074303,
-0.000013041230753,
-0.000018699758216,
-0.000024663126136,
-0.000030983588880,
-0.000037616783323,
-0.000044614666524,
-0.000051933301202,
-0.000059620315057,
-0.000067629338548,
-0.000076008879943,
-0.000084713558197,
-0.000093785519338,
-0.000103175405905,
-0.000112932639690,
-0.000123005392300,
-0.000133429715506,
-0.000144164219375,
-0.000155237904404,
-0.000166606782520,
-0.000178303785306,
-0.000190276958621,
-0.000202559486876,
-0.000215097084627,
-0.000227922556784,
-0.000240978328306,
-0.000254294218203,
-0.000267811816447,
-0.000281561578736,
-0.000295480316801,
-0.000309593304261,
-0.000323839399556,
-0.000338245276454,
-0.000352740418273,
-0.000367353966400,
-0.000382014498157,
-0.000396743909402,
-0.000411475556346,
-0.000426225701683,
-0.000440926407415,
-0.000455593014885,
-0.000470156302722,
-0.000484629890959,
-0.000498941377236,
-0.000513103528826,
-0.000527045087382,
-0.000540777281359,
-0.000554224592716,
-0.000567398494625,
-0.000580225664249,
-0.000592713255518,
-0.000604787630453,
-0.000616459044954,
-0.000627648374996,
-0.000638369191788,
-0.000648541836090,
-0.000658177380211,
-0.000667198604388,
-0.000675616276203,
-0.000683354822182,
-0.000690423543147,
-0.000696747397674,
-0.000702337695681,
-0.000707121703085,
-0.000711109469705,
-0.000714229996222,
-0.000716496798395,
-0.000717839422223,
-0.000718271392686,
-0.000717727964459,
-0.000716221770404,
-0.000713691478531,
-0.000710154255655,
-0.000705548198341,
-0.000699894639276,
-0.000693134734625,
-0.000685293660490,
-0.000676315718113,
-0.000666228220747,
-0.000654980116828,
-0.000642603185407,
-0.000629049357869,
-0.000614353449547,
-0.000598473733330,
-0.000581448743288,
-0.000563239844151,
-0.000543891550799,
-0.000523369346544,
-0.000501720764138,
-0.000478919787296,
-0.000455016035832,
-0.000429988869624,
-0.000403893164480,
-0.000376713428894,
-0.000348510087942,
-0.000319271774037,
-0.000289064413996,
-0.000257882914925,
-0.000225797808112,
-0.000192808116536,
-0.000158990557459,
-0.000124349846967,
-0.000088966571408,
-0.000052851564764,
-0.000016090481116,
0.000021302864354,
0.000059235757313,
0.000097689983629,
0.000136569669394,
0.000175850524294,
0.000215433286544,
0.000255288398283,
0.000295313709723,
0.000335475750962,
0.000375667896108,
0.000415852840126,
0.000455921865345,
0.000495834062246,
0.000535477483871,
0.000574809303389,
0.000613714889789,
0.000652148402596,
0.000689995190884,
0.000727206808440,
0.000763666526538,
0.000799326821904,
0.000834069126244,
0.000867845812264,
0.000900537970226,
0.000932098205472,
0.000962409347450,
0.000991424018430,
0.001019026274023,
0.001045170690265,
0.001069743676827,
0.001092701238026,
0.001113933552841,
0.001133399342463,
0.001150991765841,
0.001166674059119,
0.001180343930203,
0.001191967261931,
0.001201448598998,
0.001208758531204,
0.001213807136965,
0.001216571035129,
0.001216966080445,
0.001214976356235,
0.001210524601777,
0.001203601587580,
0.001194138342673,
0.001182133549156,
0.001167526198768,
0.001150323544266,
0.001130473970693,
0.001107992729734,
0.001082838578593,
0.001055036592161,
0.001024554287314,
0.000991426959810,
0.000955633411523,
0.000917218075109,
0.000876171567518,
0.000832547794398,
0.000786349239601,
0.000737640541168,
0.000686435062930,
0.000632808483118,
0.000576786123026,
0.000518454216670,
0.000457849828368,
0.000395070472213,
0.000330164087830,
0.000263239330584,
0.000194356509849,
0.000123634150483,
0.000051143645161,
-0.000022984978096,
-0.000098670196021,
-0.000175771314504,
-0.000254196366041,
-0.000333795119285,
-0.000414464564829,
-0.000496046044022,
-0.000578426718357,
-0.000661439139830,
-0.000744961500849,
-0.000828818499966,
-0.000912879463506,
-0.000996962509576,
-0.001080929602880,
-0.001164591657897,
-0.001247804428859,
-0.001330373882757,
-0.001412149210775,
-0.001492932226724,
-0.001572567629430,
-0.001650853349199,
-0.001727631308452,
-0.001802696082387,
-0.001875887547945,
-0.001946999186110,
-0.002015869350797,
-0.002082291639406,
-0.002146104495419,
-0.002207102226805,
-0.002265124725104,
-0.002319969170322,
-0.002371477205287,
-0.002419449833618,
-0.002463733151926,
-0.002504132621324,
-0.002540499253496,
-0.002572645271036,
-0.002600427386378,
-0.002623666171272,
-0.002642225559034,
-0.002655934719469,
-0.002664666987210,
-0.002668261130784,
-0.002666600776652,
-0.002659536082904,
-0.002646961709277,
-0.002628740166828,
-0.002604779153774,
-0.002574954079050,
-0.002539185929037,
-0.002497365292040,
-0.002449427450840,
-0.002395278193422,
-0.002334868648592,
-0.002268120545927,
-0.002195001408299,
-0.002115450522832,
-0.002029451565094,
-0.001936962500396,
-0.001837984159490,
-0.001732493058556,
-0.001620508267936,
-0.001502025090495,
-0.001377080893027,
-0.001245690952705,
-0.001107911175583,
-0.000963775969460,
-0.000813360699529,
-0.000656719489096,
-0.000493946350699,
-0.000325115513731,
-0.000150339738921,
0.000030287353613,
0.000216633685849,
0.000408587034859,
0.000605996638827,
0.000808731172806,
0.001016622325352,
0.001229519906790,
0.001447238597817,
0.001669610654814,
0.001896433822949,
0.002127523189911,
0.002362661392469,
0.002601646970252,
0.002844247740498,
0.003090247447362,
0.003339400081152,
0.003591475301191,
0.003846215017101,
0.004103375499193,
0.004362687778450,
0.004623896973428,
0.004886723712706,
0.005150903675903,
0.005416148611019,
0.005682185798221,
0.005948720389665,
0.006215472549641,
0.006482141816931,
0.006748443620723,
0.007014073660649,
0.007278743445840,
0.007542147055869,
0.007803993954115,
0.008063977913386,
0.008321808592442,
0.008577180978839,
0.008829806097496,
0.009079382852513,
0.009325625001296,
0.009568236859832,
0.009806937234814,
0.010041436901281,
0.010271461993924,
0.010496731541493,
0.010716979917648,
0.010931936619807,
0.011141346379568,
0.011344950012613,
0.011542504374301,
0.011733763460802,
0.011918497297069,
0.012096474986294,
0.012267481308390,
0.012431301101157,
0.012587735900957,
0.012736587730012,
0.012877675418105,
0.013010820075819,
0.013135858540814,
0.013252632252092,
0.013360997607519,
0.013460816479853,
0.013551965894753,
0.013634329699829,
0.013707805779715,
0.013772300640696,
0.013827734106739,
0.013874035381410,
0.013911146996287,
0.013939021641407,
0.013957624215805,
0.013966931425674,
0.013966931425674,
0.013957624215805,
0.013939021641407,
0.013911146996287,
0.013874035381410,
0.013827734106739,
0.013772300640696,
0.013707805779715,
0.013634329699829,
0.013551965894753,
0.013460816479853,
0.013360997607519,
0.013252632252092,
0.013135858540814,
0.013010820075819,
0.012877675418105,
0.012736587730012,
0.012587735900957,
0.012431301101157,
0.012267481308390,
0.012096474986294,
0.011918497297069,
0.011733763460802,
0.011542504374301,
0.011344950012613,
0.011141346379568,
0.010931936619807,
0.010716979917648,
0.010496731541493,
0.010271461993924,
0.010041436901281,
0.009806937234814,
0.009568236859832,
0.009325625001296,
0.009079382852513,
0.008829806097496,
0.008577180978839,
0.008321808592442,
0.008063977913386,
0.007803993954115,
0.007542147055869,
0.007278743445840,
0.007014073660649,
0.006748443620723,
0.006482141816931,
0.006215472549641,
0.005948720389665,
0.005682185798221,
0.005416148611019,
0.005150903675903,
0.004886723712706,
0.004623896973428,
0.004362687778450,
0.004103375499193,
0.003846215017101,
0.003591475301191,
0.003339400081152,
0.003090247447362,
0.002844247740498,
0.002601646970252,
0.002362661392469,
0.002127523189911,
0.001896433822949,
0.001669610654814,
0.001447238597817,
0.001229519906790,
0.001016622325352,
0.000808731172806,
0.000605996638827,
0.000408587034859,
0.000216633685849,
0.000030287353613,
-0.000150339738921,
-0.000325115513731,
-0.000493946350699,
-0.000656719489096,
-0.000813360699529,
-0.000963775969460,
-0.001107911175583,
-0.001245690952705,
-0.001377080893027,
-0.001502025090495,
-0.001620508267936,
-0.001732493058556,
-0.001837984159490,
-0.001936962500396,
-0.002029451565094,
-0.002115450522832,
-0.002195001408299,
-0.002268120545927,
-0.002334868648592,
-0.002395278193422,
-0.002449427450840,
-0.002497365292040,
-0.002539185929037,
-0.002574954079050,
-0.002604779153774,
-0.002628740166828,
-0.002646961709277,
-0.002659536082904,
-0.002666600776652,
-0.002668261130784,
-0.002664666987210,
-0.002655934719469,
-0.002642225559034,
-0.002623666171272,
-0.002600427386378,
-0.002572645271036,
-0.002540499253496,
-0.002504132621324,
-0.002463733151926,
-0.002419449833618,
-0.002371477205287,
-0.002319969170322,
-0.002265124725104,
-0.002207102226805,
-0.002146104495419,
-0.002082291639406,
-0.002015869350797,
-0.001946999186110,
-0.001875887547945,
-0.001802696082387,
-0.001727631308452,
-0.001650853349199,
-0.001572567629430,
-0.001492932226724,
-0.001412149210775,
-0.001330373882757,
-0.001247804428859,
-0.001164591657897,
-0.001080929602880,
-0.000996962509576,
-0.000912879463506,
-0.000828818499966,
-0.000744961500849,
-0.000661439139830,
-0.000578426718357,
-0.000496046044022,
-0.000414464564829,
-0.000333795119285,
-0.000254196366041,
-0.000175771314504,
-0.000098670196021,
-0.000022984978096,
0.000051143645161,
0.000123634150483,
0.000194356509849,
0.000263239330584,
0.000330164087830,
0.000395070472213,
0.000457849828368,
0.000518454216670,
0.000576786123026,
0.000632808483118,
0.000686435062930,
0.000737640541168,
0.000786349239601,
0.000832547794398,
0.000876171567518,
0.000917218075109,
0.000955633411523,
0.000991426959810,
0.001024554287314,
0.001055036592161,
0.001082838578593,
0.001107992729734,
0.001130473970693,
0.001150323544266,
0.001167526198768,
0.001182133549156,
0.001194138342673,
0.001203601587580,
0.001210524601777,
0.001214976356235,
0.001216966080445,
0.001216571035129,
0.001213807136965,
0.001208758531204,
0.001201448598998,
0.001191967261931,
0.001180343930203,
0.001166674059119,
0.001150991765841,
0.001133399342463,
0.001113933552841,
0.001092701238026,
0.001069743676827,
0.001045170690265,
0.001019026274023,
0.000991424018430,
0.000962409347450,
0.000932098205472,
0.000900537970226,
0.000867845812264,
0.000834069126244,
0.000799326821904,
0.000763666526538,
0.000727206808440,
0.000689995190884,
0.000652148402596,
0.000613714889789,
0.000574809303389,
0.000535477483871,
0.000495834062246,
0.000455921865345,
0.000415852840126,
0.000375667896108,
0.000335475750962,
0.000295313709723,
0.000255288398283,
0.000215433286544,
0.000175850524294,
0.000136569669394,
0.000097689983629,
0.000059235757313,
0.000021302864354,
-0.000016090481116,
-0.000052851564764,
-0.000088966571408,
-0.000124349846967,
-0.000158990557459,
-0.000192808116536,
-0.000225797808112,
-0.000257882914925,
-0.000289064413996,
-0.000319271774037,
-0.000348510087942,
-0.000376713428894,
-0.000403893164480,
-0.000429988869624,
-0.000455016035832,
-0.000478919787296,
-0.000501720764138,
-0.000523369346544,
-0.000543891550799,
-0.000563239844151,
-0.000581448743288,
-0.000598473733330,
-0.000614353449547,
-0.000629049357869,
-0.000642603185407,
-0.000654980116828,
-0.000666228220747,
-0.000676315718113,
-0.000685293660490,
-0.000693134734625,
-0.000699894639276,
-0.000705548198341,
-0.000710154255655,
-0.000713691478531,
-0.000716221770404,
-0.000717727964459,
-0.000718271392686,
-0.000717839422223,
-0.000716496798395,
-0.000714229996222,
-0.000711109469705,
-0.000707121703085,
-0.000702337695681,
-0.000696747397674,
-0.000690423543147,
-0.000683354822182,
-0.000675616276203,
-0.000667198604388,
-0.000658177380211,
-0.000648541836090,
-0.000638369191788,
-0.000627648374996,
-0.000616459044954,
-0.000604787630453,
-0.000592713255518,
-0.000580225664249,
-0.000567398494625,
-0.000554224592716,
-0.000540777281359,
-0.000527045087382,
-0.000513103528826,
-0.000498941377236,
-0.000484629890959,
-0.000470156302722,
-0.000455593014885,
-0.000440926407415,
-0.000426225701683,
-0.000411475556346,
-0.000396743909402,
-0.000382014498157,
-0.000367353966400,
-0.000352740418273,
-0.000338245276454,
-0.000323839399556,
-0.000309593304261,
-0.000295480316801,
-0.000281561578736,
-0.000267811816447,
-0.000254294218203,
-0.000240978328306,
-0.000227922556784,
-0.000215097084627,
-0.000202559486876,
-0.000190276958621,
-0.000178303785306,
-0.000166606782520,
-0.000155237904404,
-0.000144164219375,
-0.000133429715506,
-0.000123005392300,
-0.000112932639690,
-0.000103175405905,
-0.000093785519338,
-0.000084713558197,
-0.000076008879943,
-0.000067629338548,
-0.000059620315057,
-0.000051933301202,
-0.000044614666524,
-0.000037616783323,
-0.000030983588880,
-0.000024663126136,
-0.000018699758216,
-0.000013041230753,
-0.000007734074303,
-0.000002720255149,
0.000001955383070,
0.000006344880063,
0.000010419715292,
0.000014210972529,
0.000017698697970,
0.000020929860622,
0.000023866582048,
0.000026558776699,
0.000028977472600,
0.000031172237460,
0.000033107448416,
0.000034833144574,
0.000036318131000,
0.000037615887645,
0.000038692851277,
0.000039599899673,
0.000040300249354,
0.000040854120082,
0.000041207775321,
0.000041451551186,
0.000041509329596,
0.000041451314524,
0.000041256481830,
0.000040954816770,
0.000040516999297,
0.000039994182887,
0.000039364621645,
0.000038666841203,
0.000037872824567,
0.000037019011334,
0.000036087716341,
0.000035112830600,
0.000034082633682,
0.000033014451337,
0.000031915206572,
0.000030762451319,
0.000029610935215,
0.000028455100829,
0.000027190914345,
0.000026031574288,
0.000024818406079,
0.000023629886846,
0.000022392406702,
0.000021205342778,
0.000020003677692,
0.000018861964547,
0.000017706678255,
0.000016604900195,
0.000015489922183,
0.000014431619249,
0.000013368474230,
0.000012369394432,
0.000011372175459,
0.000010442626166,
0.000055805498765,
